<?xml version="1.0" encoding="utf-8"?>
<!-- Generator: Adobe Illustrator 21.1.0, SVG Export Plug-In . SVG Version: 6.00 Build 0)  -->
<svg version="1.1" id="Layer_1" xmlns="http://www.w3.org/2000/svg" xmlns:xlink="http://www.w3.org/1999/xlink" x="0px" y="0px"
	 width="14.5px" height="16px" viewBox="0 0 14.5 16" style="enable-background:new 0 0 14.5 16;" xml:space="preserve">
<title>Asset 1</title>
<path d="M14.5,0.6L13.9,0L7.2,7.4L0.6,0L0,0.6L6.7,8L0,15.4L0.6,16l6.7-7.4l6.7,7.4l0.6-0.6L7.8,8L14.5,0.6z"/>
</svg>
